Análisis de resultados escolares con reducción de la dimensionalidad y agrupamiento
…
En el cluster 2 hay muchas universidades de belleza y
cosmetología

colleges <- colleges %>% 
    mutate(cluster = my_kmeans$cluster) 

college_subset <- college_subset %>% 
    mutate(cluster = my_kmeans$cluster) 

colleges %>%
    filter(cluster == 1) %>%
    select(INSTNM)

## # A tibble: 37 × 1
##    INSTNM                                     
##    <chr>                                      
##  1 Walden University                          
##  2 Charter Oak State College                  
##  3 Frontier Nursing University                
##  4 New England College of Business and Finance
##  5 Excelsior College                          
##  6 Vista College-Online                       
##  7 Capella University                         
##  8 Western Governors University               
##  9 Grantham University                        
## 10 American College of Healthcare Sciences    
## # … with 27 more rows
…
